{
  "name":        "Lite Admin Theme",
  "slug":        "admin::lite",
  "parent":	     "admin::default",
  "description": "The lite admin theme.",
  "author":      "Cartalyst LLC",
  "version":     "2.0"
}
