{
    "packages": {
        "sanatorium/acf": {
            "dev-master": {
                "name": "sanatorium/acf",
                "version": "dev-master",
                "version_normalized": "9999999-dev",
                "source": {
                    "type": "git",
                    "url": "https://rozklad@bitbucket.org/sanatoriumninja/acf.git",
                    "reference": "4082adf47047e620f70b84bd6be89b7df733da88"
                },
                "require": {
                    "composer/installers": "~1.0",
                    "php": ">=5.4.0"
                },
                "time": "2016-01-02 17:43:47",
                "type": "wordpress-plugin",
                "license": [
                    "MIT"
                ],
                "authors": [
                    {
                        "name": "rozklad",
                        "email": "jan.rozklad@gmail.com",
                        "homepage": "https://rozklad.me"
                    }
                ],
                "description": "Advanced Custom Fields Pro",
                "homepage": "https://www.advancedcustomfields.com",
                "keywords": [
                    "wordpress"
                ]
            }
        },
        "sanatorium/bwps": {
            "dev-master": {
                "name": "sanatorium/bwps",
                "version": "dev-master",
                "version_normalized": "9999999-dev",
                "source": {
                    "type": "git",
                    "url": "https://rozklad@bitbucket.org/sanatoriumninja/bwps.git",
                    "reference": "7151db7a5dd5715e9226294f81e33b2c75a5efbf"
                },
                "require": {
                    "composer/installers": "~1.0",
                    "php": ">=5.4.0"
                },
                "time": "2016-01-03 11:52:21",
                "type": "wordpress-plugin",
                "license": [
                    "MIT"
                ],
                "authors": [
                    {
                        "name": "rozklad",
                        "email": "jan.rozklad@gmail.com",
                        "homepage": "https://rozklad.me"
                    }
                ],
                "description": "iThemes security",
                "homepage": "https://ithemes.com/security/",
                "keywords": [
                    "wordpress"
                ]
            }
        },
        "sanatorium/cptui": {
            "dev-master": {
                "name": "sanatorium/cptui",
                "version": "dev-master",
                "version_normalized": "9999999-dev",
                "source": {
                    "type": "git",
                    "url": "https://rozklad@bitbucket.org/sanatoriumninja/cptui.git",
                    "reference": "9055b751841579c5b8bc0e5a89c1f08b9815ebf1"
                },
                "require": {
                    "composer/installers": "~1.0",
                    "php": ">=5.4.0"
                },
                "time": "2016-01-03 11:40:33",
                "type": "wordpress-plugin",
                "license": [
                    "MIT"
                ],
                "authors": [
                    {
                        "name": "rozklad",
                        "email": "jan.rozklad@gmail.com",
                        "homepage": "https://rozklad.me"
                    }
                ],
                "description": "Custom Post Type UI",
                "homepage": "https://github.com/WebDevStudios/custom-post-type-ui",
                "keywords": [
                    "wordpress"
                ]
            }
        },
        "sanatorium/icpo": {
            "dev-master": {
                "name": "sanatorium/icpo",
                "version": "dev-master",
                "version_normalized": "9999999-dev",
                "source": {
                    "type": "git",
                    "url": "https://rozklad@bitbucket.org/sanatoriumninja/icpo.git",
                    "reference": "4d1fa8b58e1172c12d1e1f8e7d1628b12b504b4c"
                },
                "require": {
                    "composer/installers": "~1.0",
                    "php": ">=5.4.0"
                },
                "time": "2016-01-03 11:44:37",
                "type": "wordpress-plugin",
                "license": [
                    "MIT"
                ],
                "authors": [
                    {
                        "name": "rozklad",
                        "email": "jan.rozklad@gmail.com",
                        "homepage": "https://rozklad.me"
                    }
                ],
                "description": "Intuitive Custom Post Order",
                "homepage": "http://hijiriworld.com/web/plugins/intuitive-custom-post-order/",
                "keywords": [
                    "wordpress"
                ]
            }
        },
        "sanatorium/path-installers": {
            "1.0.0": {
                "name": "sanatorium/path-installers",
                "version": "1.0.0",
                "version_normalized": "1.0.0.0",
                "source": {
                    "type": "git",
                    "url": "https://github.com/sanatorium/path-installers.git",
                    "reference": "8ae95e415ac9c442cfa56f0650681bcd2e779d01"
                },
                "dist": {
                    "type": "zip",
                    "url": "https://api.github.com/repos/sanatorium/path-installers/zipball/8ae95e415ac9c442cfa56f0650681bcd2e779d01",
                    "reference": "8ae95e415ac9c442cfa56f0650681bcd2e779d01",
                    "shasum": ""
                },
                "require": {
                    "cartalyst/composer-installers": ">=1.2.0",
                    "composer-plugin-api": "^1.0",
                    "php": ">=5.3.0"
                },
                "time": "2016-03-12 17:18:06",
                "type": "composer-plugin",
                "extra": {
                    "component": "package",
                    "class": [
                        "Sanatorium\\PathInstallers\\PathInstallerPlugin"
                    ],
                    "branch-alias": {
                        "dev-master": "1.2-dev"
                    }
                },
                "autoload": {
                    "psr-4": {
                        "Sanatorium\\PathInstallers\\": "src/"
                    }
                },
                "authors": [
                    {
                        "name": "Sanatorium",
                        "email": "info@sanatorium.ninja",
                        "homepage": "http://sanatorium.ninja"
                    },
                    {
                        "name": "rozklad",
                        "email": "jan.rozklad@gmail.com",
                        "homepage": "http://rozklad.me"
                    }
                ],
                "description": "Custom composer path installers",
                "keywords": [
                    "cartalyst",
                    "composer",
                    "extension",
                    "installer",
                    "laravel",
                    "platform"
                ],
                "support": {
                    "source": "https://github.com/sanatorium/path-installers/tree/1.0.0",
                    "issues": "https://github.com/sanatorium/path-installers/issues"
                }
            },
            "1.0.1": {
                "name": "sanatorium/path-installers",
                "version": "1.0.1",
                "version_normalized": "1.0.1.0",
                "source": {
                    "type": "git",
                    "url": "https://github.com/sanatorium/path-installers.git",
                    "reference": "9e97edce9aa1d993744832bf5278c9a4f2746f11"
                },
                "dist": {
                    "type": "zip",
                    "url": "https://api.github.com/repos/sanatorium/path-installers/zipball/9e97edce9aa1d993744832bf5278c9a4f2746f11",
                    "reference": "9e97edce9aa1d993744832bf5278c9a4f2746f11",
                    "shasum": ""
                },
                "require": {
                    "cartalyst/composer-installers": ">=1.2.0",
                    "composer-plugin-api": "^1.0",
                    "php": ">=5.3.0"
                },
                "time": "2016-03-12 17:32:21",
                "type": "composer-plugin",
                "extra": {
                    "component": "package",
                    "class": [
                        "Sanatorium\\PathInstallers\\PathInstallerPlugin"
                    ],
                    "branch-alias": {
                        "dev-master": "1.2-dev"
                    }
                },
                "autoload": {
                    "psr-4": {
                        "Sanatorium\\PathInstallers\\": "src/"
                    }
                },
                "authors": [
                    {
                        "name": "Sanatorium",
                        "email": "info@sanatorium.ninja",
                        "homepage": "http://sanatorium.ninja"
                    },
                    {
                        "name": "rozklad",
                        "email": "jan.rozklad@gmail.com",
                        "homepage": "http://rozklad.me"
                    }
                ],
                "description": "Custom composer path installers",
                "keywords": [
                    "cartalyst",
                    "composer",
                    "extension",
                    "installer",
                    "laravel",
                    "platform"
                ],
                "support": {
                    "source": "https://github.com/sanatorium/path-installers/tree/1.0.1",
                    "issues": "https://github.com/sanatorium/path-installers/issues"
                }
            },
            "dev-master": {
                "name": "sanatorium/path-installers",
                "version": "dev-master",
                "version_normalized": "9999999-dev",
                "source": {
                    "type": "git",
                    "url": "https://github.com/sanatorium/path-installers.git",
                    "reference": "8ae95e415ac9c442cfa56f0650681bcd2e779d01"
                },
                "dist": {
                    "type": "zip",
                    "url": "https://api.github.com/repos/sanatorium/path-installers/zipball/8ae95e415ac9c442cfa56f0650681bcd2e779d01",
                    "reference": "8ae95e415ac9c442cfa56f0650681bcd2e779d01",
                    "shasum": ""
                },
                "require": {
                    "cartalyst/composer-installers": ">=1.2.0",
                    "composer-plugin-api": "^1.0",
                    "php": ">=5.3.0"
                },
                "time": "2016-03-12 17:18:06",
                "type": "composer-plugin",
                "extra": {
                    "component": "package",
                    "class": [
                        "Sanatorium\\PathInstallers\\PathInstallerPlugin"
                    ],
                    "branch-alias": {
                        "dev-master": "1.2-dev"
                    }
                },
                "autoload": {
                    "psr-4": {
                        "Sanatorium\\PathInstallers\\": "src/"
                    }
                },
                "authors": [
                    {
                        "name": "Sanatorium",
                        "email": "info@sanatorium.ninja",
                        "homepage": "http://sanatorium.ninja"
                    },
                    {
                        "name": "rozklad",
                        "email": "jan.rozklad@gmail.com",
                        "homepage": "http://rozklad.me"
                    }
                ],
                "description": "Custom composer path installers",
                "keywords": [
                    "cartalyst",
                    "composer",
                    "extension",
                    "installer",
                    "laravel",
                    "platform"
                ],
                "support": {
                    "source": "https://github.com/sanatorium/path-installers/tree/1.0.0",
                    "issues": "https://github.com/sanatorium/path-installers/issues"
                }
            }
        },
        "sanatorium/platform-access-lang-cs": {
            "0.0.0": {
                "name": "sanatorium/platform-access-lang-cs",
                "version": "0.0.0",
                "version_normalized": "0.0.0.0",
                "source": {
                    "type": "git",
                    "url": "https://github.com/sanatorium/platform-access-lang-cs.git",
                    "reference": "e0fa06d5b2b4d25a734ee24a631724bb8fea8fab"
                },
                "dist": {
                    "type": "zip",
                    "url": "https://api.github.com/repos/sanatorium/platform-access-lang-cs/zipball/e0fa06d5b2b4d25a734ee24a631724bb8fea8fab",
                    "reference": "e0fa06d5b2b4d25a734ee24a631724bb8fea8fab",
                    "shasum": ""
                },
                "require": {
                    "cartalyst/composer-installers": ">=1.2.0",
                    "php": ">=5.4.0"
                },
                "time": "2016-03-12 15:16:24",
                "type": "composer-installer",
                "extra": {
                    "class": "Cartalyst\\ComposerInstallers\\Installer",
                    "path": "extensions/platform/access/lang/cs/"
                },
                "authors": [
                    {
                        "name": "Sanatorium",
                        "email": "info@sanatorium.ninja",
                        "homepage": "http://sanatorium.ninja"
                    },
                    {
                        "name": "rozklad",
                        "email": "jan.rozklad@gmail.com",
                        "homepage": "http://rozklad.me"
                    }
                ],
                "description": "Czech localization to Cartalyst Platform",
                "keywords": [
                    "cartalyst",
                    "extension",
                    "laravel",
                    "localization",
                    "platform"
                ],
                "support": {
                    "source": "https://github.com/sanatorium/platform-access-lang-cs/tree/1.0.0",
                    "issues": "https://github.com/sanatorium/platform-access-lang-cs/issues"
                }
            },
            "1.0.0": {
                "name": "sanatorium/platform-access-lang-cs",
                "version": "1.0.0",
                "version_normalized": "1.0.0.0",
                "source": {
                    "type": "git",
                    "url": "https://github.com/sanatorium/platform-access-lang-cs.git",
                    "reference": "e0fa06d5b2b4d25a734ee24a631724bb8fea8fab"
                },
                "dist": {
                    "type": "zip",
                    "url": "https://api.github.com/repos/sanatorium/platform-access-lang-cs/zipball/e0fa06d5b2b4d25a734ee24a631724bb8fea8fab",
                    "reference": "e0fa06d5b2b4d25a734ee24a631724bb8fea8fab",
                    "shasum": ""
                },
                "require": {
                    "cartalyst/composer-installers": ">=1.2.0",
                    "php": ">=5.4.0"
                },
                "time": "2016-03-12 15:16:24",
                "type": "composer-installer",
                "extra": {
                    "class": "Cartalyst\\ComposerInstallers\\Installer",
                    "path": "extensions/platform/access/lang/cs/"
                },
                "authors": [
                    {
                        "name": "Sanatorium",
                        "email": "info@sanatorium.ninja",
                        "homepage": "http://sanatorium.ninja"
                    },
                    {
                        "name": "rozklad",
                        "email": "jan.rozklad@gmail.com",
                        "homepage": "http://rozklad.me"
                    }
                ],
                "description": "Czech localization to Cartalyst Platform",
                "keywords": [
                    "cartalyst",
                    "extension",
                    "laravel",
                    "localization",
                    "platform"
                ],
                "support": {
                    "source": "https://github.com/sanatorium/platform-access-lang-cs/tree/1.0.0",
                    "issues": "https://github.com/sanatorium/platform-access-lang-cs/issues"
                }
            },
            "1.0.1": {
                "name": "sanatorium/platform-access-lang-cs",
                "version": "1.0.1",
                "version_normalized": "1.0.1.0",
                "source": {
                    "type": "git",
                    "url": "https://github.com/sanatorium/platform-access-lang-cs.git",
                    "reference": "e5f73eba9378dbb29a2fa11f315df08c43151232"
                },
                "dist": {
                    "type": "zip",
                    "url": "https://api.github.com/repos/sanatorium/platform-access-lang-cs/zipball/e5f73eba9378dbb29a2fa11f315df08c43151232",
                    "reference": "e5f73eba9378dbb29a2fa11f315df08c43151232",
                    "shasum": ""
                },
                "require": {
                    "cartalyst/composer-installers": ">=1.2.0",
                    "php": ">=5.4.0"
                },
                "time": "2016-03-12 15:58:54",
                "type": "composer-installer",
                "extra": {
                    "path": "extensions/platform/access/lang/cs/"
                },
                "authors": [
                    {
                        "name": "Sanatorium",
                        "email": "info@sanatorium.ninja",
                        "homepage": "http://sanatorium.ninja"
                    },
                    {
                        "name": "rozklad",
                        "email": "jan.rozklad@gmail.com",
                        "homepage": "http://rozklad.me"
                    }
                ],
                "description": "Czech localization to Cartalyst Platform",
                "keywords": [
                    "cartalyst",
                    "extension",
                    "laravel",
                    "localization",
                    "platform"
                ],
                "support": {
                    "source": "https://github.com/sanatorium/platform-access-lang-cs/tree/1.0.1",
                    "issues": "https://github.com/sanatorium/platform-access-lang-cs/issues"
                }
            },
            "1.0.2": {
                "name": "sanatorium/platform-access-lang-cs",
                "version": "1.0.2",
                "version_normalized": "1.0.2.0",
                "source": {
                    "type": "git",
                    "url": "https://github.com/sanatorium/platform-access-lang-cs.git",
                    "reference": "e84c1eafcac99a3832f10e68d94d1641c426be34"
                },
                "dist": {
                    "type": "zip",
                    "url": "https://api.github.com/repos/sanatorium/platform-access-lang-cs/zipball/e84c1eafcac99a3832f10e68d94d1641c426be34",
                    "reference": "e84c1eafcac99a3832f10e68d94d1641c426be34",
                    "shasum": ""
                },
                "require": {
                    "cartalyst/composer-installers": ">=1.2.0",
                    "php": ">=5.4.0"
                },
                "time": "2016-03-12 16:10:06",
                "type": "platform-package",
                "extra": {
                    "component": "package",
                    "class": [
                        "Cartalyst\\ComposerInstallers\\ExtensionInstallerPlugin",
                        "Cartalyst\\ComposerInstallers\\InstallerPlugin",
                        "Cartalyst\\ComposerInstallers\\ThemeInstallerPlugin"
                    ],
                    "path": "extensions/platform/access/lang/cs/"
                },
                "authors": [
                    {
                        "name": "Sanatorium",
                        "email": "info@sanatorium.ninja",
                        "homepage": "http://sanatorium.ninja"
                    },
                    {
                        "name": "rozklad",
                        "email": "jan.rozklad@gmail.com",
                        "homepage": "http://rozklad.me"
                    }
                ],
                "description": "Czech localization to Cartalyst Platform",
                "keywords": [
                    "cartalyst",
                    "extension",
                    "laravel",
                    "localization",
                    "platform"
                ],
                "support": {
                    "source": "https://github.com/sanatorium/platform-access-lang-cs/tree/1.0.2",
                    "issues": "https://github.com/sanatorium/platform-access-lang-cs/issues"
                }
            },
            "1.0.3": {
                "name": "sanatorium/platform-access-lang-cs",
                "version": "1.0.3",
                "version_normalized": "1.0.3.0",
                "source": {
                    "type": "git",
                    "url": "https://github.com/sanatorium/platform-access-lang-cs.git",
                    "reference": "aabf844742987802b61a35d9e02dabd4699f9e66"
                },
                "dist": {
                    "type": "zip",
                    "url": "https://api.github.com/repos/sanatorium/platform-access-lang-cs/zipball/aabf844742987802b61a35d9e02dabd4699f9e66",
                    "reference": "aabf844742987802b61a35d9e02dabd4699f9e66",
                    "shasum": ""
                },
                "require": {
                    "cartalyst/composer-installers": "1.*",
                    "php": ">=5.4.0"
                },
                "time": "2016-03-12 16:37:29",
                "type": "composer-installers",
                "extra": {
                    "path": "extensions/platform/access/lang/cs/"
                },
                "authors": [
                    {
                        "name": "Sanatorium",
                        "email": "info@sanatorium.ninja",
                        "homepage": "http://sanatorium.ninja"
                    },
                    {
                        "name": "rozklad",
                        "email": "jan.rozklad@gmail.com",
                        "homepage": "http://rozklad.me"
                    }
                ],
                "description": "Czech localization to Cartalyst Platform",
                "keywords": [
                    "cartalyst",
                    "extension",
                    "laravel",
                    "localization",
                    "platform"
                ],
                "support": {
                    "source": "https://github.com/sanatorium/platform-access-lang-cs/tree/1.0.3",
                    "issues": "https://github.com/sanatorium/platform-access-lang-cs/issues"
                }
            },
            "1.0.4": {
                "name": "sanatorium/platform-access-lang-cs",
                "version": "1.0.4",
                "version_normalized": "1.0.4.0",
                "source": {
                    "type": "git",
                    "url": "https://github.com/sanatorium/platform-access-lang-cs.git",
                    "reference": "e5a73b82100a8c5491350ec61a3447934d3e14a4"
                },
                "dist": {
                    "type": "zip",
                    "url": "https://api.github.com/repos/sanatorium/platform-access-lang-cs/zipball/e5a73b82100a8c5491350ec61a3447934d3e14a4",
                    "reference": "e5a73b82100a8c5491350ec61a3447934d3e14a4",
                    "shasum": ""
                },
                "require": {
                    "cartalyst/composer-installers": "1.*",
                    "php": ">=5.4.0"
                },
                "time": "2016-03-12 16:50:52",
                "type": "composer-installer",
                "extra": {
                    "path": "extensions/platform/access/lang/cs/"
                },
                "authors": [
                    {
                        "name": "Sanatorium",
                        "email": "info@sanatorium.ninja",
                        "homepage": "http://sanatorium.ninja"
                    },
                    {
                        "name": "rozklad",
                        "email": "jan.rozklad@gmail.com",
                        "homepage": "http://rozklad.me"
                    }
                ],
                "description": "Czech localization to Cartalyst Platform",
                "keywords": [
                    "cartalyst",
                    "extension",
                    "laravel",
                    "localization",
                    "platform"
                ],
                "support": {
                    "source": "https://github.com/sanatorium/platform-access-lang-cs/tree/1.0.4",
                    "issues": "https://github.com/sanatorium/platform-access-lang-cs/issues"
                }
            },
            "1.0.5": {
                "name": "sanatorium/platform-access-lang-cs",
                "version": "1.0.5",
                "version_normalized": "1.0.5.0",
                "source": {
                    "type": "git",
                    "url": "https://github.com/sanatorium/platform-access-lang-cs.git",
                    "reference": "5b7921937cf1b0dc5ba92e36e750320fbb79cd76"
                },
                "dist": {
                    "type": "zip",
                    "url": "https://api.github.com/repos/sanatorium/platform-access-lang-cs/zipball/5b7921937cf1b0dc5ba92e36e750320fbb79cd76",
                    "reference": "5b7921937cf1b0dc5ba92e36e750320fbb79cd76",
                    "shasum": ""
                },
                "require": {
                    "cartalyst/composer-installers": ">=1.2.0",
                    "php": ">=5.4.0",
                    "sanatorium/path-installers": ">=1.0.0"
                },
                "time": "2016-03-12 17:19:35",
                "type": "path-installer",
                "extra": {
                    "path": "extensions/platform/access/lang/cs/"
                },
                "authors": [
                    {
                        "name": "Sanatorium",
                        "email": "info@sanatorium.ninja",
                        "homepage": "http://sanatorium.ninja"
                    },
                    {
                        "name": "rozklad",
                        "email": "jan.rozklad@gmail.com",
                        "homepage": "http://rozklad.me"
                    }
                ],
                "description": "Czech localization to Cartalyst Platform",
                "keywords": [
                    "cartalyst",
                    "extension",
                    "laravel",
                    "localization",
                    "platform"
                ],
                "support": {
                    "source": "https://github.com/sanatorium/platform-access-lang-cs/tree/master",
                    "issues": "https://github.com/sanatorium/platform-access-lang-cs/issues"
                }
            },
            "dev-master": {
                "name": "sanatorium/platform-access-lang-cs",
                "version": "dev-master",
                "version_normalized": "9999999-dev",
                "source": {
                    "type": "git",
                    "url": "https://github.com/sanatorium/platform-access-lang-cs.git",
                    "reference": "5b7921937cf1b0dc5ba92e36e750320fbb79cd76"
                },
                "dist": {
                    "type": "zip",
                    "url": "https://api.github.com/repos/sanatorium/platform-access-lang-cs/zipball/5b7921937cf1b0dc5ba92e36e750320fbb79cd76",
                    "reference": "5b7921937cf1b0dc5ba92e36e750320fbb79cd76",
                    "shasum": ""
                },
                "require": {
                    "cartalyst/composer-installers": ">=1.2.0",
                    "php": ">=5.4.0",
                    "sanatorium/path-installers": ">=1.0.0"
                },
                "time": "2016-03-12 17:19:35",
                "type": "path-installer",
                "extra": {
                    "path": "extensions/platform/access/lang/cs/"
                },
                "authors": [
                    {
                        "name": "Sanatorium",
                        "email": "info@sanatorium.ninja",
                        "homepage": "http://sanatorium.ninja"
                    },
                    {
                        "name": "rozklad",
                        "email": "jan.rozklad@gmail.com",
                        "homepage": "http://rozklad.me"
                    }
                ],
                "description": "Czech localization to Cartalyst Platform",
                "keywords": [
                    "cartalyst",
                    "extension",
                    "laravel",
                    "localization",
                    "platform"
                ],
                "support": {
                    "source": "https://github.com/sanatorium/platform-access-lang-cs/tree/master",
                    "issues": "https://github.com/sanatorium/platform-access-lang-cs/issues"
                }
            }
        },
        "sanatorium/platform-lang-cs": {
            "0.0.0": {
                "name": "sanatorium/platform-lang-cs",
                "version": "0.0.0",
                "version_normalized": "0.0.0.0",
                "source": {
                    "type": "git",
                    "url": "https://github.com/sanatorium/platform-lang-cs.git",
                    "reference": "72a76169b22c9f50af85905e0ee82dcefd9da45e"
                },
                "dist": {
                    "type": "zip",
                    "url": "https://api.github.com/repos/sanatorium/platform-lang-cs/zipball/72a76169b22c9f50af85905e0ee82dcefd9da45e",
                    "reference": "72a76169b22c9f50af85905e0ee82dcefd9da45e",
                    "shasum": ""
                },
                "require": {
                    "cartalyst/composer-installers": ">=1.2.0",
                    "php": ">=5.4.0",
                    "sanatorium/platform-access-lang-cs": "~1.0"
                },
                "time": "2016-03-12 15:13:54",
                "type": "library",
                "authors": [
                    {
                        "name": "Sanatorium",
                        "email": "info@sanatorium.ninja",
                        "homepage": "http://sanatorium.ninja"
                    },
                    {
                        "name": "rozklad",
                        "email": "jan.rozklad@gmail.com",
                        "homepage": "http://rozklad.me"
                    }
                ],
                "description": "Czech localization to Cartalyst Platform",
                "keywords": [
                    "cartalyst",
                    "extension",
                    "laravel",
                    "localization",
                    "platform"
                ],
                "support": {
                    "source": "https://github.com/sanatorium/platform-lang-cs/tree/master",
                    "issues": "https://github.com/sanatorium/platform-lang-cs/issues"
                }
            },
            "0.1.0": {
                "name": "sanatorium/platform-lang-cs",
                "version": "0.1.0",
                "version_normalized": "0.1.0.0",
                "source": {
                    "type": "git",
                    "url": "https://github.com/sanatorium/platform-lang-cs.git",
                    "reference": "1c8e161ad7cfb11a88585dc9ae155df38a801d76"
                },
                "dist": {
                    "type": "zip",
                    "url": "https://api.github.com/repos/sanatorium/platform-lang-cs/zipball/1c8e161ad7cfb11a88585dc9ae155df38a801d76",
                    "reference": "1c8e161ad7cfb11a88585dc9ae155df38a801d76",
                    "shasum": ""
                },
                "require": {
                    "cartalyst/composer-installers": ">=1.2.0",
                    "php": ">=5.4.0",
                    "sanatorium/platform-access-lang-cs": "~1.0"
                },
                "time": "2016-03-12 15:33:15",
                "type": "library",
                "authors": [
                    {
                        "name": "Sanatorium",
                        "email": "info@sanatorium.ninja",
                        "homepage": "http://sanatorium.ninja"
                    },
                    {
                        "name": "rozklad",
                        "email": "jan.rozklad@gmail.com",
                        "homepage": "http://rozklad.me"
                    }
                ],
                "description": "Czech localization to Cartalyst Platform",
                "keywords": [
                    "cartalyst",
                    "extension",
                    "laravel",
                    "localization",
                    "platform"
                ],
                "support": {
                    "source": "https://github.com/sanatorium/platform-lang-cs/tree/master",
                    "issues": "https://github.com/sanatorium/platform-lang-cs/issues"
                }
            },
            "0.2.0": {
                "name": "sanatorium/platform-lang-cs",
                "version": "0.2.0",
                "version_normalized": "0.2.0.0",
                "source": {
                    "type": "git",
                    "url": "https://github.com/sanatorium/platform-lang-cs.git",
                    "reference": "cf79dffd662a8390a1bfba17c7ed3cc6a595aea5"
                },
                "dist": {
                    "type": "zip",
                    "url": "https://api.github.com/repos/sanatorium/platform-lang-cs/zipball/cf79dffd662a8390a1bfba17c7ed3cc6a595aea5",
                    "reference": "cf79dffd662a8390a1bfba17c7ed3cc6a595aea5",
                    "shasum": ""
                },
                "require": {
                    "cartalyst/composer-installers": ">=1.2.0",
                    "php": ">=5.4.0",
                    "sanatorium/platform-access-lang-cs": "~1.0"
                },
                "time": "2016-03-12 15:57:34",
                "type": "library",
                "authors": [
                    {
                        "name": "Sanatorium",
                        "email": "info@sanatorium.ninja",
                        "homepage": "http://sanatorium.ninja"
                    },
                    {
                        "name": "rozklad",
                        "email": "jan.rozklad@gmail.com",
                        "homepage": "http://rozklad.me"
                    }
                ],
                "description": "Czech localization to Cartalyst Platform",
                "keywords": [
                    "cartalyst",
                    "extension",
                    "laravel",
                    "localization",
                    "platform"
                ],
                "support": {
                    "source": "https://github.com/sanatorium/platform-lang-cs/tree/0.2.0",
                    "issues": "https://github.com/sanatorium/platform-lang-cs/issues"
                }
            },
            "dev-master": {
                "name": "sanatorium/platform-lang-cs",
                "version": "dev-master",
                "version_normalized": "9999999-dev",
                "source": {
                    "type": "git",
                    "url": "https://github.com/sanatorium/platform-lang-cs.git",
                    "reference": "cf79dffd662a8390a1bfba17c7ed3cc6a595aea5"
                },
                "dist": {
                    "type": "zip",
                    "url": "https://api.github.com/repos/sanatorium/platform-lang-cs/zipball/cf79dffd662a8390a1bfba17c7ed3cc6a595aea5",
                    "reference": "cf79dffd662a8390a1bfba17c7ed3cc6a595aea5",
                    "shasum": ""
                },
                "require": {
                    "cartalyst/composer-installers": ">=1.2.0",
                    "php": ">=5.4.0",
                    "sanatorium/platform-access-lang-cs": "~1.0"
                },
                "time": "2016-03-12 15:57:34",
                "type": "library",
                "authors": [
                    {
                        "name": "Sanatorium",
                        "email": "info@sanatorium.ninja",
                        "homepage": "http://sanatorium.ninja"
                    },
                    {
                        "name": "rozklad",
                        "email": "jan.rozklad@gmail.com",
                        "homepage": "http://rozklad.me"
                    }
                ],
                "description": "Czech localization to Cartalyst Platform",
                "keywords": [
                    "cartalyst",
                    "extension",
                    "laravel",
                    "localization",
                    "platform"
                ],
                "support": {
                    "source": "https://github.com/sanatorium/platform-lang-cs/tree/0.2.0",
                    "issues": "https://github.com/sanatorium/platform-lang-cs/issues"
                }
            }
        },
        "sanatorium/underscore-audio-player": {
            "dev-master": {
                "name": "sanatorium/underscore-audio-player",
                "version": "dev-master",
                "version_normalized": "9999999-dev",
                "source": {
                    "type": "git",
                    "url": "https://github.com/rozklad/underscore-audio-player.git",
                    "reference": "7103f343e296f2d53c943af9debc7f1fa63dc4cf"
                },
                "dist": {
                    "type": "zip",
                    "url": "https://api.github.com/repos/rozklad/underscore-audio-player/zipball/7103f343e296f2d53c943af9debc7f1fa63dc4cf",
                    "reference": "7103f343e296f2d53c943af9debc7f1fa63dc4cf",
                    "shasum": ""
                },
                "require": {
                    "composer/installers": "~1.0",
                    "php": ">=5.4.0"
                },
                "time": "2016-01-02 15:46:49",
                "type": "wordpress-plugin",
                "license": [
                    "MIT"
                ],
                "authors": [
                    {
                        "name": "rozklad",
                        "email": "jan.rozklad@gmail.com",
                        "homepage": "https://rozklad.me"
                    }
                ],
                "description": "Custom Audio Player made for underscore.co.uk",
                "homepage": "https://sanatorium.ninja",
                "keywords": [
                    "wordpress"
                ],
                "support": {
                    "issues": "https://github.com/rozklad/underscore-audio-player/issues",
                    "source": "https://github.com/rozklad/underscore-audio-player/tree/master"
                }
            }
        },
        "sanatorium/wpml": {
            "dev-master": {
                "name": "sanatorium/wpml",
                "version": "dev-master",
                "version_normalized": "9999999-dev",
                "source": {
                    "type": "git",
                    "url": "https://rozklad@bitbucket.org/sanatoriumninja/wpml.git",
                    "reference": "80235e4dd3f7f1470c9b2c6820982f36025e7345"
                },
                "require": {
                    "composer/installers": "~1.0",
                    "php": ">=5.4.0"
                },
                "time": "2016-01-03 11:50:46",
                "type": "wordpress-plugin",
                "license": [
                    "MIT"
                ],
                "authors": [
                    {
                        "name": "rozklad",
                        "email": "jan.rozklad@gmail.com",
                        "homepage": "https://rozklad.me"
                    }
                ],
                "description": "Wordpress Multilingual CMS",
                "homepage": "http://wpml.org",
                "keywords": [
                    "wordpress"
                ]
            }
        }
    }
}
